Functional Programming in R: 3. Write a Function!
…
Lastly, lets create that list.

list_output <- list("ipsatized" = data_ips,
          "raw" = data_raw,
          "correlation_matrix" = cor(data_ips, data_raw))

list_output

$ipsatized
# A tibble: 2,495 x 11
      id ipsatized_TIPI1 ipsatized_TIPI2 ipsatized_TIPI3
   <int>           <dbl>           <dbl>           <dbl>
 1     1           0.5            -1.5             1.5  
 2     2           1.1             2.1             1.1  
 3     3           0.400           0.400           0.400
 4     4           1               2               2    
 5     5          -3.1            -1.1             2.9  
 6     6          -0.200          -2.2             1.8  
 7     7          -1.9             1.1             0.100
 8     8          -0.200           0.8             1.8  
 9     9          -0.300           0.7             1.7  
10    10          -3.5             1.5            -1.5  
# ... with 2,485 more rows, and 7 more variables:
#   ipsatized_TIPI4 <dbl>, ipsatized_TIPI5 <dbl>,
#   ipsatized_TIPI6 <dbl>, ipsatized_TIPI7 <dbl>,
#   ipsatized_TIPI8 <dbl>, ipsatized_TIPI9 <dbl>,
#   ipsatized_TIPI10 <dbl>

$raw
# A tibble: 2,495 x 11
      id response_TIPI1 response_TIPI2 response_TIPI3 response_TIPI4
   <int>          <int>          <int>          <int>          <int>
 1     1              5              3              6              2
 2     2              6              7              6              7
 3     3              6              6              6              1
 4     4              6              7              7              5
 5     5              1              3              7              2
 6     6              4              2              6              2
 7     7              2              5              4              2
 8     8              4              5              6              2
 9     9              4              5              6              2
10    10              1              6              3              1
# ... with 2,485 more rows, and 6 more variables:
#   response_TIPI5 <int>, response_TIPI6 <int>, response_TIPI7 <int>,
#   response_TIPI8 <int>, response_TIPI9 <int>, response_TIPI10 <int>
…
return(outputlist)
}

# Test it out
test1 <- test1 %>% 
  widen_data()

test2 <- test2 %>% 
  widen_data()

test1

$data_ips
# A tibble: 2,495 x 11
      id ipsatized_TIPI1 ipsatized_TIPI2 ipsatized_TIPI3
   <int>           <dbl>           <dbl>           <dbl>
 1     1           0.5            -1.5             1.5  
 2     2           1.1             2.1             1.1  
 3     3           0.400           0.400           0.400
 4     4           1               2               2    
 5     5          -3.1            -1.1             2.9  
 6     6          -0.200          -2.2             1.8  
 7     7          -1.9             1.1             0.100
 8     8          -0.200           0.8             1.8  
 9     9          -0.300           0.7             1.7  
10    10          -3.5             1.5            -1.5  
# ... with 2,485 more rows, and 7 more variables:
#   ipsatized_TIPI4 <dbl>, ipsatized_TIPI5 <dbl>,
#   ipsatized_TIPI6 <dbl>, ipsatized_TIPI7 <dbl>,
#   ipsatized_TIPI8 <dbl>, ipsatized_TIPI9 <dbl>,
#   ipsatized_TIPI10 <dbl>

$data_raw
# A tibble: 2,495 x 11
      id response_TIPI1 response_TIPI2 response_TIPI3 response_TIPI4
   <int>          <int>          <int>          <int>          <int>
 1     1              5              3              6              2
 2     2              6              7              6              7
 3     3              6              6              6              1
 4     4              6              7              7              5
 5     5              1              3              7              2
 6     6              4              2              6              2
 7     7              2              5              4              2
 8     8              4              5              6              2
 9     9              4              5              6              2
10    10              1              6              3              1
# ... with 2,485 more rows, and 6 more variables:
#   response_TIPI5 <int>, response_TIPI6 <int>, response_TIPI7 <int>,
#   response_TIPI8 <int>, response_TIPI9 <int>, response_TIPI10 <int>

test2

$data_ips
# A tibble: 2,495 x 11
      id ipsatized_TIPI1 ipsatized_TIPI2 ipsatized_TIPI3
   <int>           <dbl>           <dbl>           <dbl>
 1     1           0.5            -1.5             1.5  
 2     2           1.1             2.1             1.1  
 3     3           0.400           0.400           0.400
 4     4           1               2               2    
 5     5          -3.1            -1.1             2.9  
 6     6          -0.200          -2.2             1.8  
 7     7          -1.9             1.1             0.100
 8     8          -0.200           0.8             1.8  
 9     9          -0.300           0.7             1.7  
10    10          -3.5             1.5            -1.5  
# ... with 2,485 more rows, and 7 more variables:
#   ipsatized_TIPI4 <dbl>, ipsatized_TIPI5 <dbl>,
#   ipsatized_TIPI6 <dbl>, ipsatized_TIPI7 <dbl>,
#   ipsatized_TIPI8 <dbl>, ipsatized_TIPI9 <dbl>,
#   ipsatized_TIPI10 <dbl>

$data_raw
# A tibble: 2,495 x 11
      id response_TIPI1 response_TIPI2 response_TIPI3 response_TIPI4
   <int>          <int>          <int>          <int>          <int>
 1     1              5              3              6              2
 2     2              6              7              6              7
 3     3              6              6              6              1
 4     4              6              7              7              5
 5     5              1              3              7              2
 6     6              4              2              6              2
 7     7              2              5              4              2
 8     8              4              5              6              2
 9     9              4              5              6              2
10    10              1              6              3              1
# ... with 2,485 more rows, and 6 more variables:
#   response_TIPI5 <int>, response_TIPI6 <int>, response_TIPI7 <int>,
#   response_TIPI8 <int>, response_TIPI9 <int>, response_TIPI10 <int>

Create a list to organize the output

ipsatize_list <- function(df) {
  list("ipsatized" = df$data_ips,
          "raw" = df$data_raw,
          "correlation_matrix" = cor(df$data_ips, df$data_raw))
}

# Test it out
test1 %>%
  ipsatize_list()

$ipsatized
# A tibble: 2,495 x 11
      id ipsatized_TIPI1 ipsatized_TIPI2 ipsatized_TIPI3
   <int>           <dbl>           <dbl>           <dbl>
 1     1           0.5            -1.5             1.5  
 2     2           1.1             2.1             1.1  
 3     3           0.400           0.400           0.400
 4     4           1               2               2    
 5     5          -3.1            -1.1             2.9  
 6     6          -0.200          -2.2             1.8  
 7     7          -1.9             1.1             0.100
 8     8          -0.200           0.8             1.8  
 9     9          -0.300           0.7             1.7  
10    10          -3.5             1.5            -1.5  
# ... with 2,485 more rows, and 7 more variables:
#   ipsatized_TIPI4 <dbl>, ipsatized_TIPI5 <dbl>,
#   ipsatized_TIPI6 <dbl>, ipsatized_TIPI7 <dbl>,
#   ipsatized_TIPI8 <dbl>, ipsatized_TIPI9 <dbl>,
#   ipsatized_TIPI10 <dbl>

$raw
# A tibble: 2,495 x 11
      id response_TIPI1 response_TIPI2 response_TIPI3 response_TIPI4
   <int>          <int>          <int>          <int>          <int>
 1     1              5              3              6              2
 2     2              6              7              6              7
 3     3              6              6              6              1
 4     4              6              7              7              5
 5     5              1              3              7              2
 6     6              4              2              6              2
 7     7              2              5              4              2
 8     8              4              5              6              2
 9     9              4              5              6              2
10    10              1              6              3              1
# ... with 2,485 more rows, and 6 more variables:
#   response_TIPI5 <int>, response_TIPI6 <int>, response_TIPI7 <int>,
#   response_TIPI8 <int>, response_TIPI9 <int>, response_TIPI10 <int>
…
test2 %>%
  ipsatize_list()

$ipsatized
# A tibble: 2,495 x 11
      id ipsatized_TIPI1 ipsatized_TIPI2 ipsatized_TIPI3
   <int>           <dbl>           <dbl>           <dbl>
 1     1           0.5            -1.5             1.5  
 2     2           1.1             2.1             1.1  
 3     3           0.400           0.400           0.400
 4     4           1               2               2    
 5     5          -3.1            -1.1             2.9  
 6     6          -0.200          -2.2             1.8  
 7     7          -1.9             1.1             0.100
 8     8          -0.200           0.8             1.8  
 9     9          -0.300           0.7             1.7  
10    10          -3.5             1.5            -1.5  
# ... with 2,485 more rows, and 7 more variables:
#   ipsatized_TIPI4 <dbl>, ipsatized_TIPI5 <dbl>,
#   ipsatized_TIPI6 <dbl>, ipsatized_TIPI7 <dbl>,
#   ipsatized_TIPI8 <dbl>, ipsatized_TIPI9 <dbl>,
#   ipsatized_TIPI10 <dbl>

$raw
# A tibble: 2,495 x 11
      id response_TIPI1 response_TIPI2 response_TIPI3 response_TIPI4
   <int>          <int>          <int>          <int>          <int>
 1     1              5              3              6              2
 2     2              6              7              6              7
 3     3              6              6              6              1
 4     4              6              7              7              5
 5     5              1              3              7              2
 6     6              4              2              6              2
 7     7              2              5              4              2
 8     8              4              5              6              2
 9     9              4              5              6              2
10    10              1              6              3              1
# ... with 2,485 more rows, and 6 more variables:
#   response_TIPI5 <int>, response_TIPI6 <int>, response_TIPI7 <int>,
#   response_TIPI8 <int>, response_TIPI9 <int>, response_TIPI10 <int>
…
ipsatize <- function(df) {
  df %>% 
    just_num() %>% 
    add_id() %>% 
    lengthen_data() %>% 
    transform_data() %>% 
    widen_data() %>% 
    ipsatize_list()
}

# Test it out
ipsatize(data)

$ipsatized
# A tibble: 2,495 x 11
      id ipsatized_TIPI1 ipsatized_TIPI2 ipsatized_TIPI3
   <int>           <dbl>           <dbl>           <dbl>
 1     1           0.5            -1.5             1.5  
 2     2           1.1             2.1             1.1  
 3     3           0.400           0.400           0.400
 4     4           1               2               2    
 5     5          -3.1            -1.1             2.9  
 6     6          -0.200          -2.2             1.8  
 7     7          -1.9             1.1             0.100
 8     8          -0.200           0.8             1.8  
 9     9          -0.300           0.7             1.7  
10    10          -3.5             1.5            -1.5  
# ... with 2,485 more rows, and 7 more variables:
#   ipsatized_TIPI4 <dbl>, ipsatized_TIPI5 <dbl>,
#   ipsatized_TIPI6 <dbl>, ipsatized_TIPI7 <dbl>,
#   ipsatized_TIPI8 <dbl>, ipsatized_TIPI9 <dbl>,
#   ipsatized_TIPI10 <dbl>

$raw
# A tibble: 2,495 x 11
      id response_TIPI1 response_TIPI2 response_TIPI3 response_TIPI4
   <int>          <int>          <int>          <int>          <int>
 1     1              5              3              6              2
 2     2              6              7              6              7
 3     3              6              6              6              1
 4     4              6              7              7              5
 5     5              1              3              7              2
 6     6              4              2              6              2
 7     7              2              5              4              2
 8     8              4              5              6              2
 9     9              4              5              6              2
10    10              1              6              3              1
# ... with 2,485 more rows, and 6 more variables:
#   response_TIPI5 <int>, response_TIPI6 <int>, response_TIPI7 <int>,
#   response_TIPI8 <int>, response_TIPI9 <int>, response_TIPI10 <int>
…
ipsatize(iris)

$ipsatized
# A tibble: 2,495 x 11
      id ipsatized_TIPI1 ipsatized_TIPI2 ipsatized_TIPI3
   <int>           <dbl>           <dbl>           <dbl>
 1     1           0.5            -1.5             1.5  
 2     2           1.1             2.1             1.1  
 3     3           0.400           0.400           0.400
 4     4           1               2               2    
 5     5          -3.1            -1.1             2.9  
 6     6          -0.200          -2.2             1.8  
 7     7          -1.9             1.1             0.100
 8     8          -0.200           0.8             1.8  
 9     9          -0.300           0.7             1.7  
10    10          -3.5             1.5            -1.5  
# ... with 2,485 more rows, and 7 more variables:
#   ipsatized_TIPI4 <dbl>, ipsatized_TIPI5 <dbl>,
#   ipsatized_TIPI6 <dbl>, ipsatized_TIPI7 <dbl>,
#   ipsatized_TIPI8 <dbl>, ipsatized_TIPI9 <dbl>,
#   ipsatized_TIPI10 <dbl>

$raw
# A tibble: 2,495 x 11
      id response_TIPI1 response_TIPI2 response_TIPI3 response_TIPI4
   <int>          <int>          <int>          <int>          <int>
 1     1              5              3              6              2
 2     2              6              7              6              7
 3     3              6              6              6              1
 4     4              6              7              7              5
 5     5              1              3              7              2
 6     6              4              2              6              2
 7     7              2              5              4              2
 8     8              4              5              6              2
 9     9              4              5              6              2
10    10              1              6              3              1
# ... with 2,485 more rows, and 6 more variables:
#   response_TIPI5 <int>, response_TIPI6 <int>, response_TIPI7 <int>,
#   response_TIPI8 <int>, response_TIPI9 <int>, response_TIPI10 <int>
…
ipsdat

$ipsatized
# A tibble: 2,495 x 11
      id ipsatized_TIPI1 ipsatized_TIPI2 ipsatized_TIPI3
   <int>           <dbl>           <dbl>           <dbl>
 1     1           0.5            -1.5             1.5  
 2     2           1.1             2.1             1.1  
 3     3           0.400           0.400           0.400
 4     4           1               2               2    
 5     5          -3.1            -1.1             2.9  
 6     6          -0.200          -2.2             1.8  
 7     7          -1.9             1.1             0.100
 8     8          -0.200           0.8             1.8  
 9     9          -0.300           0.7             1.7  
10    10          -3.5             1.5            -1.5  
# ... with 2,485 more rows, and 7 more variables:
#   ipsatized_TIPI4 <dbl>, ipsatized_TIPI5 <dbl>,
#   ipsatized_TIPI6 <dbl>, ipsatized_TIPI7 <dbl>,
#   ipsatized_TIPI8 <dbl>, ipsatized_TIPI9 <dbl>,
#   ipsatized_TIPI10 <dbl>

$raw
# A tibble: 2,495 x 11
      id response_TIPI1 response_TIPI2 response_TIPI3 response_TIPI4
   <int>          <int>          <int>          <int>          <int>
 1     1              5              3              6              2
 2     2              6              7              6              7
 3     3              6              6              6              1
 4     4              6              7              7              5
 5     5              1              3              7              2
 6     6              4              2              6              2
 7     7              2              5              4              2
 8     8              4              5              6              2
 9     9              4              5              6              2
10    10              1              6              3              1
# ... with 2,485 more rows, and 6 more variables:
#   response_TIPI5 <int>, response_TIPI6 <int>, response_TIPI7 <int>,
#   response_TIPI8 <int>, response_TIPI9 <int>, response_TIPI10 <int>
…
