3. Write a Function!
…
Perfect! Now the next part is figuring out how to add a column with the mean rows. One way of thinking about this is we have a id variable which can be used to group the data. We can then use pivot_longer and pivot_wider to format the data.

data %>% 
  add_id() %>% 
  pivot_longer(cols = !id, names_to = "col_names")

# A tibble: 24,950 x 3
      id col_names value
   <int> <chr>     <int>
 1     1 TIPI1         5
 2     1 TIPI2         3
 3     1 TIPI3         6
 4     1 TIPI4         2
 5     1 TIPI5         6
 6     1 TIPI6         6
 7     1 TIPI7         7
 8     1 TIPI8         2
 9     1 TIPI9         7
10     1 TIPI10        1
# ... with 24,940 more rows

We have a 10 rows (equal to 10 variables) dedicated to every row id in this dataframe. We can use group_by to compute the means within every group and find deviations for every score from the mean.

data %>% 
  add_id() %>% 
  pivot_longer(cols = !id, names_to = "col_names") %>% 
  group_by(id) %>% 
  mutate(means_rowwise = mean(value, na.rm = T),
         value = value - means_rowwise)

# A tibble: 24,950 x 4
# Groups:   id [2,495]
      id col_names value means_rowwise
   <int> <chr>     <dbl>         <dbl>
 1     1 TIPI1       0.5           4.5
 2     1 TIPI2      -1.5           4.5
 3     1 TIPI3       1.5           4.5
 4     1 TIPI4      -2.5           4.5
 5     1 TIPI5       1.5           4.5
 6     1 TIPI6       1.5           4.5
 7     1 TIPI7       2.5           4.5
 8     1 TIPI8      -2.5           4.5
 9     1 TIPI9       2.5           4.5
10     1 TIPI10     -3.5           4.5
# ... with 24,940 more rows

Now, we can use pivot_wider for reformatting the data to how it looked before.

data %>% 
  add_id() %>% 
  pivot_longer(cols = !id, names_to = "col_names") %>% 
  group_by(id) %>% 
  mutate(means_rowwise = mean(value, na.rm = T),
         value = value - means_rowwise) %>% 
  pivot_wider(names_from = col_names, values_from = value) %>% 
  select(id, !means_rowwise) %>% 
   ungroup()

# A tibble: 2,495 x 11
      id  TIPI1  TIPI2  TIPI3 TIPI4  TIPI5  TIPI6  TIPI7  TIPI8 TIPI9
   <int>  <dbl>  <dbl>  <dbl> <dbl>  <dbl>  <dbl>  <dbl>  <dbl> <dbl>
 1     1  0.5   -1.5    1.5    -2.5  1.5    1.5    2.5   -2.5     2.5
 2     2  1.1    2.1    1.1     2.1  1.1   -1.9    2.1    0.100  -3.9
 3     3  0.400  0.400  0.400  -4.6  1.4   -0.600  0.400 -0.600   1.4
 4     4  1      2      2       0    2      1      0     -4       0  
 5     5 -3.1   -1.1    2.9    -2.1  1.9   -0.100  0.9    0.9     0.9
 6     6 -0.200 -2.2    1.8    -2.2  1.8    0.8    1.8   -1.2     1.8
 7     7 -1.9    1.1    0.100  -1.9  1.1    2.1   -1.9   -0.9     1.1
 8     8 -0.200  0.8    1.8    -2.2  2.8   -0.200  0.8    0.8    -1.2
 9     9 -0.300  0.7    1.7    -2.3 -0.300  0.7    1.7   -2.3     2.7
10    10 -3.5    1.5   -1.5    -3.5  0.5    2.5    1.5    0.5     2.5
# ... with 2,485 more rows, and 1 more variable: TIPI10 <dbl>
…
 output <- dfid %>% 
  pivot_longer(cols = !id, names_to = "col_names") %>% 
  group_by(id) %>% 
  mutate(means_rowwise = mean(value, na.rm = T),
         value = value - means_rowwise) %>% 
  pivot_wider(names_from = col_names, values_from = value) %>% 
  select(id, !means_rowwise) %>% 
   ungroup()

  output
}

ipsatize_MD(data)

# A tibble: 2,495 x 11
      id  TIPI1  TIPI2  TIPI3 TIPI4  TIPI5  TIPI6  TIPI7  TIPI8 TIPI9
   <int>  <dbl>  <dbl>  <dbl> <dbl>  <dbl>  <dbl>  <dbl>  <dbl> <dbl>
 1     1  0.5   -1.5    1.5    -2.5  1.5    1.5    2.5   -2.5     2.5
 2     2  1.1    2.1    1.1     2.1  1.1   -1.9    2.1    0.100  -3.9
 3     3  0.400  0.400  0.400  -4.6  1.4   -0.600  0.400 -0.600   1.4
 4     4  1      2      2       0    2      1      0     -4       0  
 5     5 -3.1   -1.1    2.9    -2.1  1.9   -0.100  0.9    0.9     0.9
 6     6 -0.200 -2.2    1.8    -2.2  1.8    0.8    1.8   -1.2     1.8
 7     7 -1.9    1.1    0.100  -1.9  1.1    2.1   -1.9   -0.9     1.1
 8     8 -0.200  0.8    1.8    -2.2  2.8   -0.200  0.8    0.8    -1.2
 9     9 -0.300  0.7    1.7    -2.3 -0.300  0.7    1.7   -2.3     2.7
10    10 -3.5    1.5   -1.5    -3.5  0.5    2.5    1.5    0.5     2.5
# ... with 2,485 more rows, and 1 more variable: TIPI10 <dbl>
…
  output
}

ipsatize_MD(data)

# A tibble: 2,495 x 10
    TIPI1  TIPI2  TIPI3 TIPI4  TIPI5  TIPI6  TIPI7  TIPI8 TIPI9 TIPI10
    <dbl>  <dbl>  <dbl> <dbl>  <dbl>  <dbl>  <dbl>  <dbl> <dbl>  <dbl>
 1  0.5   -1.5    1.5    -2.5  1.5    1.5    2.5   -2.5     2.5   -3.5
 2  1.1    2.1    1.1     2.1  1.1   -1.9    2.1    0.100  -3.9   -3.9
 3  0.400  0.400  0.400  -4.6  1.4   -0.600  0.400 -0.600   1.4    1.4
 4  1      2      2       0    2      1      0     -4       0     -4  
 5 -3.1   -1.1    2.9    -2.1  1.9   -0.100  0.9    0.9     0.9   -1.1
 6 -0.200 -2.2    1.8    -2.2  1.8    0.8    1.8   -1.2     1.8   -2.2
 7 -1.9    1.1    0.100  -1.9  1.1    2.1   -1.9   -0.9     1.1    1.1
 8 -0.200  0.8    1.8    -2.2  2.8   -0.200  0.8    0.8    -1.2   -3.2
 9 -0.300  0.7    1.7    -2.3 -0.300  0.7    1.7   -2.3     2.7   -2.3
10 -3.5    1.5   -1.5    -3.5  0.5    2.5    1.5    0.5     2.5   -0.5
# ... with 2,485 more rows

A closer look will tell you that we could benefit from renaming the column names of the ips dataframe within the list. The paste function can be helpful to do this.

rename_ips <- function(ipsatized_data){
  names(ipsatized_data) <- paste0(names(ipsatized_data), "_ips")
  return(ipsatized_data)
}

rename_ips(ipsatize_MD(data))

# A tibble: 2,495 x 10
   TIPI1_ips TIPI2_ips TIPI3_ips TIPI4_ips TIPI5_ips TIPI6_ips
       <dbl>     <dbl>     <dbl>     <dbl>     <dbl>     <dbl>
 1     0.5      -1.5       1.5        -2.5     1.5       1.5  
 2     1.1       2.1       1.1         2.1     1.1      -1.9  
 3     0.400     0.400     0.400      -4.6     1.4      -0.600
 4     1         2         2           0       2         1    
 5    -3.1      -1.1       2.9        -2.1     1.9      -0.100
 6    -0.200    -2.2       1.8        -2.2     1.8       0.8  
 7    -1.9       1.1       0.100      -1.9     1.1       2.1  
 8    -0.200     0.8       1.8        -2.2     2.8      -0.200
 9    -0.300     0.7       1.7        -2.3    -0.300     0.7  
10    -3.5       1.5      -1.5        -3.5     0.5       2.5  
# ... with 2,485 more rows, and 4 more variables: TIPI7_ips <dbl>,
#   TIPI8_ips <dbl>, TIPI9_ips <dbl>, TIPI10_ips <dbl>
…
